[{"email":"gpowell0@xrea.com"},
{"email":"jpatterson1@ihg.com"},
{"email":"cgray2@google.pl"},
{"email":"twashington3@hud.gov"},
{"email":"tduncan4@taobao.com"},
{"email":"bstewart5@nih.gov"},
{"email":"jwells6@quantcast.com"},
{"email":"salexander7@tinyurl.com"},
{"email":"mbanks8@google.es"},
{"email":"jbell9@ox.ac.uk"},
{"email":"bstanleya@intel.com"},
{"email":"lhudsonb@whitehouse.gov"},
{"email":"gcunninghamc@elegantthemes.com"},
{"email":"jbowmand@printfriendly.com"},
{"email":"bmedinae@java.com"},
{"email":"kkellyf@foxnews.com"},
{"email":"cyoungg@furl.net"},
{"email":"dwhiteh@tmall.com"},
{"email":"hmillsi@blogs.com"},
{"email":"lhallj@icio.us"},
{"email":"wdanielsk@cargocollective.com"},
{"email":"wromerol@mozilla.com"},
{"email":"bdunnm@example.com"},
{"email":"lhughesn@scribd.com"},
{"email":"asimmonso@amazonaws.com"},
{"email":"lmorenop@so-net.ne.jp"},
{"email":"spierceq@php.net"},
{"email":"ejamesr@msu.edu"},
{"email":"jfieldss@sciencedirect.com"},
{"email":"jgonzalest@vk.com"},
{"email":"bmedinau@yellowpages.com"},
{"email":"kpricev@pcworld.com"},
{"email":"asullivanw@unblog.fr"},
{"email":"jromerox@studiopress.com"},
{"email":"glewisy@wp.com"},
{"email":"kspencerz@oaic.gov.au"},
{"email":"narmstrong10@unesco.org"},
{"email":"aevans11@mac.com"},
{"email":"lferguson12@pbs.org"},
{"email":"jlawrence13@privacy.gov.au"},
{"email":"cbennett14@arstechnica.com"},
{"email":"mtucker15@ycombinator.com"},
{"email":"tnguyen16@utexas.edu"},
{"email":"efranklin17@simplemachines.org"},
{"email":"cfisher18@sbwire.com"},
{"email":"tferguson19@gravatar.com"},
{"email":"eharper1a@addtoany.com"},
{"email":"mhenry1b@disqus.com"},
{"email":"vlittle1c@ucoz.com"},
{"email":"drice1d@woothemes.com"},
{"email":"vanderson1e@sitemeter.com"},
{"email":"mporter1f@plala.or.jp"},
{"email":"lpalmer1g@prweb.com"},
{"email":"abowman1h@google.com.hk"},
{"email":"rlawson1i@vkontakte.ru"},
{"email":"sjacobs1j@newsvine.com"},
{"email":"cmurphy1k@irs.gov"},
{"email":"dburke1l@geocities.jp"},
{"email":"vperez1m@wufoo.com"},
{"email":"bowens1n@prnewswire.com"},
{"email":"jmyers1o@slideshare.net"},
{"email":"cfox1p@posterous.com"},
{"email":"kboyd1q@phoca.cz"},
{"email":"vhall1r@nature.com"},
{"email":"eellis1s@ihg.com"},
{"email":"rromero1t@thetimes.co.uk"},
{"email":"rdiaz1u@so-net.ne.jp"},
{"email":"smoore1v@uol.com.br"},
{"email":"tturner1w@joomla.org"},
{"email":"jspencer1x@plala.or.jp"},
{"email":"wlawrence1y@patch.com"},
{"email":"cperry1z@thetimes.co.uk"},
{"email":"smcdonald20@statcounter.com"},
{"email":"asanchez21@cargocollective.com"},
{"email":"jlawson22@mozilla.org"},
{"email":"jdunn23@smugmug.com"},
{"email":"hgibson24@tripadvisor.com"},
{"email":"drivera25@newyorker.com"},
{"email":"athomas26@1und1.de"},
{"email":"fgonzales27@cbc.ca"},
{"email":"jmorris28@phoca.cz"},
{"email":"mbutler29@ucsd.edu"},
{"email":"fgeorge2a@furl.net"},
{"email":"asimmons2b@sphinn.com"},
{"email":"bwood2c@usnews.com"},
{"email":"jramirez2d@sourceforge.net"},
{"email":"eaustin2e@furl.net"},
{"email":"klarson2f@symantec.com"},
{"email":"aburke2g@vimeo.com"},
{"email":"jbailey2h@sun.com"},
{"email":"glong2i@stanford.edu"},
{"email":"mmorrison2j@amazon.com"},
{"email":"acoleman2k@adobe.com"},
{"email":"ereynolds2l@php.net"},
{"email":"ccarter2m@engadget.com"},
{"email":"paustin2n@twitpic.com"},
{"email":"crice2o@businessweek.com"},
{"email":"dsullivan2p@elpais.com"},
{"email":"anichols2q@blogger.com"},
{"email":"chicks2r@printfriendly.com"},
{"email":"wbowman2s@over-blog.com"},
{"email":"sgibson2t@whitehouse.gov"},
{"email":"chill2u@sciencedaily.com"},
{"email":"charris2v@apple.com"},
{"email":"bcook2w@trellian.com"},
{"email":"whanson2x@list-manage.com"},
{"email":"ahansen2y@vistaprint.com"},
{"email":"mdiaz2z@examiner.com"},
{"email":"lblack30@gov.uk"},
{"email":"jhawkins31@domainmarket.com"},
{"email":"amartinez32@infoseek.co.jp"},
{"email":"rrichards33@ucoz.com"},
{"email":"rhill34@comcast.net"},
{"email":"vkim35@51.la"},
{"email":"aday36@youku.com"},
{"email":"jmedina37@walmart.com"},
{"email":"kallen38@usa.gov"},
{"email":"jnguyen39@uiuc.edu"},
{"email":"jmccoy3a@gov.uk"},
{"email":"mwillis3b@rakuten.co.jp"},
{"email":"pfox3c@cbc.ca"},
{"email":"hhernandez3d@tinyurl.com"},
{"email":"kwatson3e@altervista.org"},
{"email":"awood3f@symantec.com"},
{"email":"fjordan3g@tinyurl.com"},
{"email":"dramirez3h@businessinsider.com"},
{"email":"jreid3i@angelfire.com"},
{"email":"swood3j@sourceforge.net"},
{"email":"nwarren3k@seattletimes.com"},
{"email":"jlawson3l@mapy.cz"},
{"email":"jbishop3m@godaddy.com"},
{"email":"jmoore3n@bing.com"},
{"email":"mhill3o@g.co"},
{"email":"wberry3p@buzzfeed.com"},
{"email":"maustin3q@blinklist.com"},
{"email":"speters3r@senate.gov"},
{"email":"sdavis3s@marketwatch.com"},
{"email":"jaustin3t@plala.or.jp"},
{"email":"emiller3u@geocities.com"},
{"email":"afoster3v@baidu.com"},
{"email":"mbryant3w@sciencedaily.com"},
{"email":"acox3x@addthis.com"},
{"email":"cstevens3y@columbia.edu"},
{"email":"nweaver3z@washington.edu"},
{"email":"gstephens40@cisco.com"},
{"email":"khall41@cnbc.com"},
{"email":"emason42@ameblo.jp"},
{"email":"bchapman43@shareasale.com"},
{"email":"dlynch44@networkadvertising.org"},
{"email":"bkim45@chronoengine.com"},
{"email":"gkim46@google.ca"},
{"email":"vporter47@bigcartel.com"},
{"email":"bgeorge48@ftc.gov"},
{"email":"dpeters49@mashable.com"},
{"email":"mjenkins4a@wix.com"},
{"email":"jchapman4b@w3.org"},
{"email":"pbradley4c@xinhuanet.com"},
{"email":"jhughes4d@cbsnews.com"},
{"email":"palvarez4e@cmu.edu"},
{"email":"kwagner4f@geocities.jp"},
{"email":"jaustin4g@mail.ru"},
{"email":"aclark4h@ted.com"},
{"email":"lford4i@blogspot.com"},
{"email":"sbutler4j@wired.com"},
{"email":"abradley4k@arstechnica.com"},
{"email":"rsanchez4l@mtv.com"},
{"email":"kholmes4m@sphinn.com"},
{"email":"sgibson4n@wikispaces.com"},
{"email":"bchavez4o@flavors.me"},
{"email":"sgarza4p@craigslist.org"},
{"email":"khart4q@discuz.net"},
{"email":"skelley4r@sciencedaily.com"},
{"email":"akim4s@google.fr"},
{"email":"kwilson4t@irs.gov"},
{"email":"award4u@ftc.gov"},
{"email":"cbell4v@bluehost.com"},
{"email":"sbanks4w@linkedin.com"},
{"email":"jturner4x@china.com.cn"},
{"email":"nwilliamson4y@163.com"},
{"email":"shall4z@aboutads.info"},
{"email":"jjohnson50@indiegogo.com"},
{"email":"eperry51@huffingtonpost.com"},
{"email":"jmedina52@i2i.jp"},
{"email":"bhanson53@is.gd"},
{"email":"darmstrong54@microsoft.com"},
{"email":"rfowler55@merriam-webster.com"},
{"email":"alynch56@ucsd.edu"},
{"email":"dcox57@upenn.edu"},
{"email":"kchavez58@time.com"},
{"email":"msullivan59@ebay.com"},
{"email":"cgreene5a@psu.edu"},
{"email":"sscott5b@ezinearticles.com"},
{"email":"ktaylor5c@mail.ru"},
{"email":"ahunt5d@liveinternet.ru"},
{"email":"jrice5e@nasa.gov"},
{"email":"dhawkins5f@yandex.ru"},
{"email":"mnichols5g@cornell.edu"},
{"email":"troberts5h@umn.edu"},
{"email":"arobinson5i@dell.com"},
{"email":"kbrooks5j@shop-pro.jp"},
{"email":"dkim5k@epa.gov"},
{"email":"jgreen5l@umn.edu"},
{"email":"kgutierrez5m@freewebs.com"},
{"email":"achavez5n@imgur.com"},
{"email":"mross5o@google.co.uk"},
{"email":"glong5p@yelp.com"},
{"email":"dcarr5q@about.me"},
{"email":"jmeyer5r@mozilla.com"},
{"email":"dholmes5s@themeforest.net"},
{"email":"rjackson5t@tiny.cc"},
{"email":"lwright5u@washington.edu"},
{"email":"scampbell5v@soup.io"},
{"email":"dbarnes5w@icq.com"},
{"email":"vreed5x@goo.gl"},
{"email":"bjones5y@pen.io"},
{"email":"bporter5z@yellowpages.com"},
{"email":"jmartinez60@liveinternet.ru"},
{"email":"jmurphy61@prnewswire.com"},
{"email":"kharvey62@shareasale.com"},
{"email":"lwhite63@360.cn"},
{"email":"bturner64@youtube.com"},
{"email":"dcunningham65@hatena.ne.jp"},
{"email":"smatthews66@1688.com"},
{"email":"khawkins67@uiuc.edu"},
{"email":"nmendoza68@ustream.tv"},
{"email":"cgilbert69@w3.org"},
{"email":"jbaker6a@biblegateway.com"},
{"email":"agutierrez6b@accuweather.com"},
{"email":"mgilbert6c@chron.com"},
{"email":"rparker6d@canalblog.com"},
{"email":"rgriffin6e@tiny.cc"},
{"email":"bhill6f@delicious.com"},
{"email":"fhoward6g@angelfire.com"},
{"email":"bspencer6h@seattletimes.com"},
{"email":"smatthews6i@google.fr"},
{"email":"acollins6j@census.gov"},
{"email":"pjenkins6k@chronoengine.com"},
{"email":"srobinson6l@vk.com"},
{"email":"hbennett6m@lycos.com"},
{"email":"bcox6n@accuweather.com"},
{"email":"lblack6o@nasa.gov"},
{"email":"ssimpson6p@myspace.com"},
{"email":"dalvarez6q@prweb.com"},
{"email":"banderson6r@auda.org.au"},
{"email":"lnguyen6s@apache.org"},
{"email":"mhenderson6t@edublogs.org"},
{"email":"jnelson6u@paginegialle.it"},
{"email":"dortiz6v@devhub.com"},
{"email":"bnelson6w@vinaora.com"},
{"email":"wreed6x@twitpic.com"},
{"email":"mhawkins6y@hostgator.com"},
{"email":"tgibson6z@themeforest.net"},
{"email":"dcollins70@indiatimes.com"},
{"email":"wandrews71@va.gov"},
{"email":"sarnold72@discovery.com"},
{"email":"fmyers73@adobe.com"},
{"email":"nduncan74@home.pl"},
{"email":"clane75@taobao.com"},
{"email":"djohnson76@gravatar.com"},
{"email":"rclark77@amazon.de"},
{"email":"scruz78@whitehouse.gov"},
{"email":"lhenderson79@1688.com"},
{"email":"jcastillo7a@time.com"},
{"email":"dwells7b@elpais.com"},
{"email":"bnichols7c@archive.org"},
{"email":"awashington7d@vimeo.com"},
{"email":"bfrazier7e@desdev.cn"},
{"email":"rwilson7f@yellowpages.com"},
{"email":"hphillips7g@ucsd.edu"},
{"email":"aholmes7h@msu.edu"},
{"email":"crichardson7i@cnn.com"},
{"email":"jcarroll7j@merriam-webster.com"},
{"email":"pnguyen7k@plala.or.jp"},
{"email":"jreyes7l@senate.gov"},
{"email":"jmatthews7m@ning.com"},
{"email":"hhall7n@mapquest.com"},
{"email":"gchapman7o@spiegel.de"},
{"email":"pbailey7p@storify.com"},
{"email":"nmorales7q@newyorker.com"},
{"email":"gharrison7r@npr.org"},
{"email":"eyoung7s@4shared.com"},
{"email":"rruiz7t@ibm.com"},
{"email":"lburns7u@zdnet.com"},
{"email":"jphillips7v@dedecms.com"},
{"email":"ewatson7w@studiopress.com"},
{"email":"mmedina7x@smh.com.au"},
{"email":"jfuller7y@amazon.co.jp"},
{"email":"jstevens7z@discovery.com"},
{"email":"rscott80@google.com.hk"},
{"email":"lbradley81@dot.gov"},
{"email":"ssanders82@odnoklassniki.ru"},
{"email":"cthompson83@shareasale.com"},
{"email":"gdavis84@lulu.com"},
{"email":"ahamilton85@mediafire.com"},
{"email":"rhanson86@skyrock.com"},
{"email":"cbrooks87@phoca.cz"},
{"email":"lburns88@163.com"},
{"email":"gjones89@comcast.net"},
{"email":"athompson8a@google.de"},
{"email":"jgriffin8b@about.com"},
{"email":"bpeters8c@odnoklassniki.ru"},
{"email":"dschmidt8d@slideshare.net"},
{"email":"lrogers8e@sitemeter.com"},
{"email":"klawrence8f@europa.eu"},
{"email":"mburton8g@rambler.ru"},
{"email":"mgriffin8h@forbes.com"},
{"email":"ganderson8i@istockphoto.com"},
{"email":"bdaniels8j@surveymonkey.com"},
{"email":"pwarren8k@networkadvertising.org"},
{"email":"rfernandez8l@ebay.co.uk"},
{"email":"hcunningham8m@miibeian.gov.cn"},
{"email":"lferguson8n@histats.com"},
{"email":"twashington8o@imgur.com"},
{"email":"dmoreno8p@amazon.co.jp"},
{"email":"rwillis8q@taobao.com"},
{"email":"edean8r@lycos.com"},
{"email":"jcarter8s@simplemachines.org"},
{"email":"schapman8t@ted.com"},
{"email":"jfowler8u@pbs.org"},
{"email":"acampbell8v@booking.com"},
{"email":"aburton8w@ucla.edu"},
{"email":"aadams8x@imageshack.us"},
{"email":"pevans8y@51.la"},
{"email":"walexander8z@etsy.com"},
{"email":"tthomas90@reference.com"},
{"email":"mdean91@gov.uk"},
{"email":"jhill92@phoca.cz"},
{"email":"rflores93@vinaora.com"},
{"email":"devans94@vinaora.com"},
{"email":"scarter95@hibu.com"},
{"email":"alawrence96@moonfruit.com"},
{"email":"twelch97@apple.com"},
{"email":"jfranklin98@princeton.edu"},
{"email":"hmorrison99@163.com"},
{"email":"emorgan9a@scribd.com"},
{"email":"cnguyen9b@webnode.com"},
{"email":"jpierce9c@hostgator.com"},
{"email":"cpeters9d@reverbnation.com"},
{"email":"hjackson9e@cyberchimps.com"},
{"email":"ahanson9f@mashable.com"},
{"email":"clynch9g@aol.com"},
{"email":"lfowler9h@un.org"},
{"email":"tpalmer9i@bing.com"},
{"email":"jwhite9j@printfriendly.com"},
{"email":"jjohnston9k@instagram.com"},
{"email":"pgomez9l@flavors.me"},
{"email":"jnelson9m@youtu.be"},
{"email":"jlarson9n@free.fr"},
{"email":"kfernandez9o@google.co.jp"},
{"email":"jdavis9p@google.com.hk"},
{"email":"ekelley9q@mit.edu"},
{"email":"tbailey9r@nasa.gov"},
{"email":"jbanks9s@utexas.edu"},
{"email":"agarcia9t@163.com"},
{"email":"sturner9u@twitter.com"},
{"email":"aroberts9v@example.com"},
{"email":"agomez9w@illinois.edu"},
{"email":"agreene9x@ovh.net"},
{"email":"abarnes9y@tumblr.com"},
{"email":"srose9z@tinyurl.com"},
{"email":"wpetersa0@cbslocal.com"},
{"email":"jperrya1@ask.com"},
{"email":"bcastilloa2@last.fm"},
{"email":"rbrowna3@loc.gov"},
{"email":"bmartina4@paginegialle.it"},
{"email":"lpowella5@zdnet.com"},
{"email":"rharrisona6@elegantthemes.com"},
{"email":"shalla7@blogtalkradio.com"},
{"email":"mperkinsa8@indiatimes.com"},
{"email":"jolsona9@unesco.org"},
{"email":"rhamiltonaa@miitbeian.gov.cn"},
{"email":"dhenryab@prweb.com"},
{"email":"jwoodsac@shareasale.com"},
{"email":"khillad@goo.ne.jp"},
{"email":"jblackae@hp.com"},
{"email":"jreyesaf@tumblr.com"},
{"email":"sadamsag@mlb.com"},
{"email":"aknightah@blogtalkradio.com"},
{"email":"jrichardsonai@tumblr.com"},
{"email":"cperryaj@apache.org"},
{"email":"jstanleyak@merriam-webster.com"},
{"email":"swheeleral@wikimedia.org"},
{"email":"cperkinsam@examiner.com"},
{"email":"nruizan@barnesandnoble.com"},
{"email":"sparkerao@weibo.com"},
{"email":"mgarzaap@eepurl.com"},
{"email":"pnguyenaq@qq.com"},
{"email":"bmorrisonar@com.com"},
{"email":"tcookas@archive.org"},
{"email":"pwalkerat@smugmug.com"},
{"email":"lcastilloau@deviantart.com"},
{"email":"anicholsav@storify.com"},
{"email":"swebbaw@moonfruit.com"},
{"email":"mdavisax@cbslocal.com"},
{"email":"gbowmanay@seattletimes.com"},
{"email":"mcookaz@ocn.ne.jp"},
{"email":"jwoodsb0@rediff.com"},
{"email":"epattersonb1@zdnet.com"},
{"email":"kgrahamb2@weather.com"},
{"email":"fsimmonsb3@mayoclinic.com"},
{"email":"glawsonb4@slideshare.net"},
{"email":"jgrantb5@histats.com"},
{"email":"rhowellb6@sbwire.com"},
{"email":"ipattersonb7@bravesites.com"},
{"email":"pelliottb8@dion.ne.jp"},
{"email":"shallb9@furl.net"},
{"email":"mkimba@hostgator.com"},
{"email":"jlynchbb@cdc.gov"},
{"email":"njordanbc@jimdo.com"},
{"email":"drichardsbd@timesonline.co.uk"},
{"email":"aellisbe@twitter.com"},
{"email":"cmartinbf@elpais.com"},
{"email":"rbowmanbg@narod.ru"},
{"email":"cgonzalezbh@google.com.hk"},
{"email":"dburtonbi@cbsnews.com"},
{"email":"apiercebj@fc2.com"},
{"email":"cjenkinsbk@blogtalkradio.com"},
{"email":"jwoodsbl@yahoo.com"},
{"email":"jfullerbm@devhub.com"},
{"email":"tallenbn@cam.ac.uk"},
{"email":"shernandezbo@blog.com"},
{"email":"jspencerbp@prlog.org"},
{"email":"ethomasbq@ed.gov"},
{"email":"dmatthewsbr@psu.edu"},
{"email":"jtuckerbs@engadget.com"},
{"email":"mclarkbt@woothemes.com"},
{"email":"swilliamsbu@rediff.com"},
{"email":"jgarciabv@twitpic.com"},
{"email":"clewisbw@google.com.hk"},
{"email":"jstevensbx@statcounter.com"},
{"email":"jowensby@nps.gov"},
{"email":"gmorganbz@nyu.edu"},
{"email":"dwilsonc0@psu.edu"},
{"email":"rtaylorc1@noaa.gov"},
{"email":"bdixonc2@seattletimes.com"},
{"email":"lfloresc3@weebly.com"},
{"email":"bbradleyc4@pbs.org"},
{"email":"scarpenterc5@icq.com"},
{"email":"dpetersc6@ask.com"},
{"email":"rolsonc7@ning.com"},
{"email":"mharrisonc8@about.me"},
{"email":"dcookc9@ning.com"},
{"email":"hcampbellca@xrea.com"},
{"email":"agordoncb@berkeley.edu"},
{"email":"mgardnercc@google.es"},
{"email":"tschmidtcd@tmall.com"},
{"email":"hbanksce@paginegialle.it"},
{"email":"grileycf@theguardian.com"},
{"email":"jhawkinscg@dmoz.org"},
{"email":"ahillch@disqus.com"},
{"email":"jbishopci@prlog.org"},
{"email":"lfullercj@e-recht24.de"},
{"email":"jbrooksck@dell.com"},
{"email":"pgardnercl@skyrock.com"},
{"email":"rmitchellcm@uiuc.edu"},
{"email":"aedwardscn@arizona.edu"},
{"email":"hgrahamco@tumblr.com"},
{"email":"nhudsoncp@alexa.com"},
{"email":"kstevenscq@instagram.com"},
{"email":"hmeyercr@typepad.com"},
{"email":"rhernandezcs@goo.gl"},
{"email":"lgonzalezct@ed.gov"},
{"email":"dhansoncu@businesswire.com"},
{"email":"rbankscv@europa.eu"},
{"email":"gfranklincw@sphinn.com"},
{"email":"bcruzcx@domainmarket.com"},
{"email":"ecarrcy@reverbnation.com"},
{"email":"hsullivancz@aboutads.info"},
{"email":"llarsond0@quantcast.com"},
{"email":"jbradleyd1@theglobeandmail.com"},
{"email":"emarshalld2@amazon.co.jp"},
{"email":"nblackd3@miibeian.gov.cn"},
{"email":"rolsond4@disqus.com"},
{"email":"dburnsd5@4shared.com"},
{"email":"jhansond6@dot.gov"},
{"email":"areidd7@ocn.ne.jp"},
{"email":"pcunninghamd8@csmonitor.com"},
{"email":"greidd9@opera.com"},
{"email":"tsimmonsda@go.com"},
{"email":"msmithdb@merriam-webster.com"},
{"email":"mduncandc@wsj.com"},
{"email":"handrewsdd@soundcloud.com"},
{"email":"rcarterde@rambler.ru"},
{"email":"dhowelldf@china.com.cn"},
{"email":"csimpsondg@shinystat.com"},
{"email":"sjamesdh@t.co"},
{"email":"rjonesdi@cocolog-nifty.com"},
{"email":"jadamsdj@sun.com"},
{"email":"mgilbertdk@alexa.com"},
{"email":"jburtondl@ning.com"},
{"email":"pmatthewsdm@cmu.edu"},
{"email":"devansdn@biglobe.ne.jp"},
{"email":"byoungdo@omniture.com"},
{"email":"ksimmonsdp@phoca.cz"},
{"email":"bparkerdq@jalbum.net"},
{"email":"tgutierrezdr@mysql.com"},
{"email":"jwilsonds@bluehost.com"},
{"email":"tkelleydt@mysql.com"},
{"email":"cchavezdu@amazonaws.com"},
{"email":"anicholsdv@youtube.com"},
{"email":"vcarrolldw@abc.net.au"},
{"email":"saustindx@alexa.com"},
{"email":"mfowlerdy@jugem.jp"},
{"email":"cdavisdz@eepurl.com"},
{"email":"lolsone0@cafepress.com"},
{"email":"ksimmonse1@lycos.com"},
{"email":"jstonee2@comcast.net"},
{"email":"dgardnere3@vk.com"},
{"email":"wmyerse4@omniture.com"},
{"email":"faustine5@4shared.com"},
{"email":"abishope6@surveymonkey.com"},
{"email":"larnolde7@unblog.fr"},
{"email":"afowlere8@unesco.org"},
{"email":"jrusselle9@parallels.com"},
{"email":"sweaverea@mysql.com"},
{"email":"criceeb@europa.eu"},
{"email":"smurrayec@webeden.co.uk"},
{"email":"bbishoped@state.tx.us"},
{"email":"rriceee@fc2.com"},
{"email":"mkimef@businesswire.com"},
{"email":"pwilliamseg@wikipedia.org"},
{"email":"jknighteh@cargocollective.com"},
{"email":"bgomezei@behance.net"},
{"email":"rperezej@oracle.com"},
{"email":"sharveyek@ebay.co.uk"},
{"email":"jwarrenel@mlb.com"},
{"email":"rdunnem@google.ru"},
{"email":"srichardsen@mit.edu"},
{"email":"arichardseo@nydailynews.com"},
{"email":"anelsonep@booking.com"},
{"email":"cperezeq@earthlink.net"},
{"email":"pgonzalezer@howstuffworks.com"},
{"email":"pfreemanes@rambler.ru"},
{"email":"rmooreet@princeton.edu"},
{"email":"ejacksoneu@wordpress.com"},
{"email":"csanchezev@about.com"},
{"email":"hgutierrezew@blogtalkradio.com"},
{"email":"bthomasex@icio.us"},
{"email":"aparkerey@xing.com"},
{"email":"cholmesez@washington.edu"},
{"email":"mbradleyf0@state.tx.us"},
{"email":"bbellf1@blogtalkradio.com"},
{"email":"arogersf2@canalblog.com"},
{"email":"mmillsf3@w3.org"},
{"email":"ilongf4@gravatar.com"},
{"email":"ehartf5@latimes.com"},
{"email":"rolsonf6@msn.com"},
{"email":"jfernandezf7@exblog.jp"},
{"email":"nrodriguezf8@shop-pro.jp"},
{"email":"ksimpsonf9@devhub.com"},
{"email":"gromerofa@vk.com"},
{"email":"solsonfb@sohu.com"},
{"email":"mrossfc@weibo.com"},
{"email":"boliverfd@vkontakte.ru"},
{"email":"dwilliamsfe@ucoz.com"},
{"email":"mgrantff@sciencedaily.com"},
{"email":"sjohnstonfg@github.com"},
{"email":"dbowmanfh@miibeian.gov.cn"},
{"email":"lrossfi@moonfruit.com"},
{"email":"rwashingtonfj@mac.com"},
{"email":"tmccoyfk@webs.com"},
{"email":"nwashingtonfl@tinyurl.com"},
{"email":"jstewartfm@google.cn"},
{"email":"jmitchellfn@marketwatch.com"},
{"email":"skimfo@behance.net"},
{"email":"bclarkfp@reverbnation.com"},
{"email":"bgonzalesfq@utexas.edu"},
{"email":"pwallacefr@alibaba.com"},
{"email":"rcooperfs@wikimedia.org"},
{"email":"skennedyft@macromedia.com"},
{"email":"bmorrisonfu@imdb.com"},
{"email":"jpalmerfv@csmonitor.com"},
{"email":"vmorrisonfw@samsung.com"},
{"email":"rrosefx@soup.io"},
{"email":"cwilliamsfy@etsy.com"},
{"email":"pelliottfz@so-net.ne.jp"},
{"email":"blewisg0@oakley.com"},
{"email":"jwagnerg1@google.com.hk"},
{"email":"jkingg2@smugmug.com"},
{"email":"drossg3@odnoklassniki.ru"},
{"email":"ckellyg4@yellowpages.com"},
{"email":"sscottg5@nps.gov"},
{"email":"swestg6@china.com.cn"},
{"email":"jrobertsg7@behance.net"},
{"email":"joliverg8@cargocollective.com"},
{"email":"mporterg9@unc.edu"},
{"email":"jgordonga@intel.com"},
{"email":"jpattersongb@csmonitor.com"},
{"email":"sholmesgc@amazon.com"},
{"email":"cperezgd@alibaba.com"},
{"email":"jwoodge@reddit.com"},
{"email":"aandersongf@baidu.com"},
{"email":"nmeyergg@theglobeandmail.com"},
{"email":"pwallacegh@economist.com"},
{"email":"lmitchellgi@weibo.com"},
{"email":"lkellygj@archive.org"},
{"email":"bthomasgk@timesonline.co.uk"},
{"email":"kholmesgl@cbslocal.com"},
{"email":"jaustingm@vistaprint.com"},
{"email":"mbakergn@huffingtonpost.com"},
{"email":"gpetersongo@sourceforge.net"},
{"email":"cparkergp@de.vu"},
{"email":"vevansgq@blogger.com"},
{"email":"jbennettgr@wikipedia.org"},
{"email":"aarmstronggs@mit.edu"},
{"email":"jharrisgt@mayoclinic.com"},
{"email":"lhendersongu@spotify.com"},
{"email":"kcookgv@constantcontact.com"},
{"email":"jpaynegw@cargocollective.com"},
{"email":"ajacksongx@dedecms.com"},
{"email":"dpetersongy@reverbnation.com"},
{"email":"ahughesgz@mozilla.org"},
{"email":"lalvarezh0@mozilla.com"},
{"email":"abutlerh1@godaddy.com"},
{"email":"hclarkh2@wunderground.com"},
{"email":"srichardsh3@cloudflare.com"},
{"email":"talexanderh4@ustream.tv"},
{"email":"tmontgomeryh5@homestead.com"},
{"email":"rlarsonh6@nytimes.com"},
{"email":"aharperh7@harvard.edu"},
{"email":"cbarnesh8@xinhuanet.com"},
{"email":"emorganh9@elegantthemes.com"},
{"email":"arossha@odnoklassniki.ru"},
{"email":"tandrewshb@ustream.tv"},
{"email":"hrosshc@squarespace.com"},
{"email":"pwebbhd@wikispaces.com"},
{"email":"jmartinhe@macromedia.com"},
{"email":"jellishf@eventbrite.com"},
{"email":"mwallacehg@twitter.com"},
{"email":"pharrishh@prlog.org"},
{"email":"cadamshi@telegraph.co.uk"},
{"email":"jlawrencehj@goo.ne.jp"},
{"email":"btuckerhk@a8.net"},
{"email":"lcolehl@eventbrite.com"},
{"email":"amorenohm@hostgator.com"},
{"email":"jcoxhn@stumbleupon.com"},
{"email":"swalkerho@yahoo.co.jp"},
{"email":"plawsonhp@mashable.com"},
{"email":"dgomezhq@virginia.edu"},
{"email":"cfosterhr@mlb.com"},
{"email":"pcampbellhs@blogspot.com"},
{"email":"bmoralesht@amazon.co.uk"},
{"email":"candrewshu@dropbox.com"},
{"email":"smorrishv@uol.com.br"},
{"email":"mgarretthw@freewebs.com"},
{"email":"dgrayhx@ebay.co.uk"},
{"email":"drogershy@google.com.hk"},
{"email":"pjacksonhz@cbc.ca"},
{"email":"pnguyeni0@aol.com"},
{"email":"ehilli1@nytimes.com"},
{"email":"awatsoni2@intel.com"},
{"email":"akellyi3@networkadvertising.org"},
{"email":"thughesi4@smh.com.au"},
{"email":"rgordoni5@jimdo.com"},
{"email":"dburkei6@last.fm"},
{"email":"rcooperi7@macromedia.com"},
{"email":"rhanseni8@hp.com"},
{"email":"mwilsoni9@github.io"},
{"email":"jlaneia@canalblog.com"},
{"email":"cnguyenib@wisc.edu"},
{"email":"dbradleyic@networkadvertising.org"},
{"email":"jdunnid@prnewswire.com"},
{"email":"rhawkinsie@eventbrite.com"},
{"email":"vyoungif@latimes.com"},
{"email":"joliverig@digg.com"},
{"email":"rjonesih@gov.uk"},
{"email":"eburnsii@icq.com"},
{"email":"gromeroij@virginia.edu"},
{"email":"bbaileyik@jugem.jp"},
{"email":"pmorganil@wired.com"},
{"email":"bwoodim@typepad.com"},
{"email":"sdavisin@1688.com"},
{"email":"sgutierrezio@indiegogo.com"},
{"email":"jmatthewsip@redcross.org"},
{"email":"twilliamsoniq@taobao.com"},
{"email":"khansenir@nature.com"},
{"email":"kpierceis@statcounter.com"},
{"email":"tmyersit@bloomberg.com"},
{"email":"ddavisiu@cnet.com"},
{"email":"acarteriv@huffingtonpost.com"},
{"email":"hgreeniw@wikimedia.org"},
{"email":"vpierceix@naver.com"},
{"email":"kgriffiniy@bing.com"},
{"email":"ledwardsiz@vkontakte.ru"},
{"email":"ecolej0@wikipedia.org"},
{"email":"kharperj1@newyorker.com"},
{"email":"rcrawfordj2@unc.edu"},
{"email":"fkellyj3@berkeley.edu"},
{"email":"pchapmanj4@google.co.jp"},
{"email":"bfergusonj5@redcross.org"},
{"email":"ewoodj6@noaa.gov"},
{"email":"promeroj7@a8.net"},
{"email":"ataylorj8@vimeo.com"},
{"email":"fhenryj9@berkeley.edu"},
{"email":"jgibsonja@pcworld.com"},
{"email":"jgreenejb@state.gov"},
{"email":"ewellsjc@thetimes.co.uk"},
{"email":"rchavezjd@a8.net"},
{"email":"cclarkje@archive.org"},
{"email":"ssanchezjf@cnet.com"},
{"email":"awillisjg@example.com"},
{"email":"sjordanjh@infoseek.co.jp"},
{"email":"rwelchji@cocolog-nifty.com"},
{"email":"hmorrisjj@webeden.co.uk"},
{"email":"tpattersonjk@sbwire.com"},
{"email":"afernandezjl@feedburner.com"},
{"email":"bjohnstonjm@t-online.de"},
{"email":"kmitchelljn@guardian.co.uk"},
{"email":"ecunninghamjo@bing.com"},
{"email":"kwallacejp@example.com"},
{"email":"clewisjq@yellowpages.com"},
{"email":"hcampbelljr@nydailynews.com"},
{"email":"rwebbjs@furl.net"},
{"email":"awestjt@hostgator.com"},
{"email":"acampbellju@merriam-webster.com"},
{"email":"mbakerjv@cargocollective.com"},
{"email":"dgarzajw@github.com"},
{"email":"charperjx@nifty.com"},
{"email":"vfullerjy@jigsy.com"},
{"email":"mreedjz@reference.com"},
{"email":"cmasonk0@nps.gov"},
{"email":"wpetersk1@intel.com"},
{"email":"pjonesk2@blogs.com"},
{"email":"spetersk3@army.mil"},
{"email":"mrichardsonk4@wordpress.com"},
{"email":"aelliottk5@princeton.edu"},
{"email":"lthomask6@youtube.com"},
{"email":"pbowmank7@bigcartel.com"},
{"email":"kevansk8@addtoany.com"},
{"email":"amyersk9@com.com"},
{"email":"bwilliamska@nature.com"},
{"email":"jmoraleskb@livejournal.com"},
{"email":"cfloreskc@studiopress.com"},
{"email":"bbradleykd@wiley.com"},
{"email":"jwatsonke@free.fr"},
{"email":"nmorenokf@columbia.edu"},
{"email":"aarmstrongkg@skyrock.com"},
{"email":"kreidkh@acquirethisname.com"},
{"email":"jmorriski@weibo.com"},
{"email":"sryankj@xing.com"},
{"email":"agomezkk@shinystat.com"},
{"email":"rmarshallkl@google.nl"},
{"email":"jbishopkm@nature.com"},
{"email":"pcunninghamkn@vk.com"},
{"email":"rmeyerko@go.com"},
{"email":"fcampbellkp@cnet.com"},
{"email":"lsnyderkq@senate.gov"},
{"email":"jgreenekr@pbs.org"},
{"email":"mmccoyks@mashable.com"},
{"email":"barnoldkt@ocn.ne.jp"},
{"email":"hpetersonku@amazonaws.com"},
{"email":"lramoskv@vinaora.com"},
{"email":"jaustinkw@jugem.jp"},
{"email":"rmitchellkx@bbc.co.uk"},
{"email":"jstevensky@imgur.com"},
{"email":"dcoxkz@stanford.edu"},
{"email":"jkiml0@zdnet.com"},
{"email":"efoxl1@ox.ac.uk"},
{"email":"jmurrayl2@wiley.com"},
{"email":"jhayesl3@tiny.cc"},
{"email":"dreidl4@goo.gl"},
{"email":"mberryl5@wordpress.com"},
{"email":"lbarnesl6@nsw.gov.au"},
{"email":"rryanl7@google.co.uk"},
{"email":"mwallacel8@stanford.edu"},
{"email":"jcruzl9@techcrunch.com"},
{"email":"eturnerla@cloudflare.com"},
{"email":"kbaileylb@ebay.co.uk"},
{"email":"mburtonlc@creativecommons.org"},
{"email":"rmcdonaldld@time.com"},
{"email":"jharveyle@live.com"},
{"email":"wgeorgelf@gizmodo.com"},
{"email":"ccollinslg@rediff.com"},
{"email":"cgardnerlh@loc.gov"},
{"email":"storresli@seesaa.net"},
{"email":"smeyerlj@chron.com"},
{"email":"kwheelerlk@eepurl.com"},
{"email":"klawrencell@prweb.com"},
{"email":"tgomezlm@stumbleupon.com"},
{"email":"pfisherln@netlog.com"},
{"email":"ralvarezlo@dot.gov"},
{"email":"arobertslp@webnode.com"},
{"email":"dpricelq@ucsd.edu"},
{"email":"dsimpsonlr@e-recht24.de"},
{"email":"htuckerls@reddit.com"},
{"email":"jlewislt@home.pl"},
{"email":"msimpsonlu@cbc.ca"},
{"email":"mthomaslv@cocolog-nifty.com"},
{"email":"jlewislw@prlog.org"},
{"email":"kduncanlx@google.es"},
{"email":"molsonly@alexa.com"},
{"email":"dwardlz@paypal.com"},
{"email":"wwagnerm0@google.com.hk"},
{"email":"pgibsonm1@plala.or.jp"},
{"email":"charrisonm2@gravatar.com"},
{"email":"aberrym3@angelfire.com"},
{"email":"pwilliamsm4@nbcnews.com"},
{"email":"bgardnerm5@pagesperso-orange.fr"},
{"email":"ehallm6@indiatimes.com"},
{"email":"mhawkinsm7@icq.com"},
{"email":"aporterm8@msn.com"},
{"email":"jduncanm9@apple.com"},
{"email":"cmillsma@sfgate.com"},
{"email":"sjonesmb@soundcloud.com"},
{"email":"mhendersonmc@amazon.com"},
{"email":"btuckermd@chronoengine.com"},
{"email":"mhansenme@ow.ly"},
{"email":"jraymf@indiatimes.com"},
{"email":"sreedmg@ox.ac.uk"},
{"email":"rjacobsmh@economist.com"},
{"email":"aclarkmi@wired.com"},
{"email":"smartinmj@123-reg.co.uk"},
{"email":"rsmithmk@is.gd"},
{"email":"narnoldml@51.la"},
{"email":"dtorresmm@newyorker.com"},
{"email":"ebradleymn@fda.gov"},
{"email":"ggutierrezmo@blogs.com"},
{"email":"mcolemanmp@sfgate.com"},
{"email":"psmithmq@bizjournals.com"},
{"email":"efoxmr@yelp.com"},
{"email":"mandersonms@howstuffworks.com"},
{"email":"jrobertsmt@youtube.com"},
{"email":"hperrymu@sohu.com"},
{"email":"vpetersmv@webmd.com"},
{"email":"awellsmw@yahoo.com"},
{"email":"jharveymx@w3.org"},
{"email":"mgutierrezmy@un.org"},
{"email":"lfergusonmz@free.fr"},
{"email":"agarzan0@ca.gov"},
{"email":"wmcdonaldn1@de.vu"},
{"email":"jfoxn2@youtu.be"},
{"email":"afraziern3@apache.org"},
{"email":"nspencern4@discovery.com"},
{"email":"jreidn5@barnesandnoble.com"},
{"email":"byoungn6@tripod.com"},
{"email":"jbowmann7@arizona.edu"},
{"email":"mjohnsonn8@japanpost.jp"},
{"email":"cburken9@discovery.com"},
{"email":"eadamsna@hp.com"},
{"email":"ryoungnb@t.co"},
{"email":"acoxnc@over-blog.com"},
{"email":"treednd@slideshare.net"},
{"email":"rjohnstonne@vinaora.com"},
{"email":"wmurraynf@vkontakte.ru"},
{"email":"kandersonng@cmu.edu"},
{"email":"jreidnh@mlb.com"},
{"email":"sharrisonni@opera.com"},
{"email":"mramosnj@edublogs.org"},
{"email":"kjamesnk@acquirethisname.com"},
{"email":"mraynl@mozilla.org"},
{"email":"jrileynm@omniture.com"},
{"email":"rburtonnn@bizjournals.com"},
{"email":"skimno@unicef.org"},
{"email":"araynp@youku.com"},
{"email":"swatsonnq@reddit.com"},
{"email":"khayesnr@last.fm"},
{"email":"pgrantns@omniture.com"},
{"email":"tgutierreznt@bing.com"},
{"email":"tjamesnu@indiatimes.com"},
{"email":"dwatsonnv@prlog.org"},
{"email":"dstevensnw@tamu.edu"},
{"email":"lwatkinsnx@miibeian.gov.cn"},
{"email":"bharrisonny@constantcontact.com"},
{"email":"cchaveznz@usda.gov"},
{"email":"drayo0@gravatar.com"},
{"email":"larnoldo1@liveinternet.ru"},
{"email":"hbrowno2@intel.com"},
{"email":"afranklino3@chicagotribune.com"},
{"email":"fphillipso4@w3.org"},
{"email":"bmcdonaldo5@constantcontact.com"},
{"email":"tpayneo6@squidoo.com"},
{"email":"pdayo7@marketwatch.com"},
{"email":"pmoraleso8@aboutads.info"},
{"email":"kmillero9@is.gd"},
{"email":"kmooreoa@cornell.edu"},
{"email":"rmitchellob@qq.com"},
{"email":"jsimsoc@nbcnews.com"},
{"email":"dphillipsod@sciencedaily.com"},
{"email":"gmillsoe@360.cn"},
{"email":"njohnsonof@dailymail.co.uk"},
{"email":"dstephensog@joomla.org"},
{"email":"tallenoh@independent.co.uk"},
{"email":"rwilliamsoi@fastcompany.com"},
{"email":"vdayoj@oracle.com"},
{"email":"rgarzaok@indiegogo.com"},
{"email":"aallenol@163.com"},
{"email":"pbutlerom@stumbleupon.com"},
{"email":"fhayeson@cpanel.net"},
{"email":"tmoralesoo@nymag.com"},
{"email":"pcolemanop@mozilla.org"},
{"email":"btayloroq@msn.com"},
{"email":"bfergusonor@quantcast.com"},
{"email":"astanleyos@businesswire.com"},
{"email":"hjohnsonot@google.fr"},
{"email":"ptaylorou@jiathis.com"},
{"email":"aruizov@google.cn"},
{"email":"ccolemanow@cocolog-nifty.com"},
{"email":"lcarrollox@dion.ne.jp"},
{"email":"bwatsonoy@mysql.com"},
{"email":"jrogersoz@friendfeed.com"},
{"email":"gstevensp0@zdnet.com"},
{"email":"aschmidtp1@google.it"},
{"email":"jbarnesp2@angelfire.com"},
{"email":"mgrantp3@msu.edu"},
{"email":"jjohnsonp4@storify.com"},
{"email":"akelleyp5@archive.org"},
{"email":"fmartinp6@bbc.co.uk"},
{"email":"dburtonp7@skyrock.com"},
{"email":"breidp8@engadget.com"},
{"email":"asanchezp9@twitter.com"},
{"email":"jwatsonpa@photobucket.com"},
{"email":"lgardnerpb@canalblog.com"},
{"email":"jbakerpc@tamu.edu"},
{"email":"jmatthewspd@xing.com"},
{"email":"msullivanpe@ed.gov"},
{"email":"hellispf@noaa.gov"},
{"email":"eparkerpg@google.fr"},
{"email":"crileyph@cbslocal.com"},
{"email":"ghendersonpi@addthis.com"},
{"email":"kolsonpj@nih.gov"},
{"email":"gburnspk@edublogs.org"},
{"email":"rsnyderpl@va.gov"},
{"email":"smedinapm@deliciousdays.com"},
{"email":"bchavezpn@opensource.org"},
{"email":"mjacobspo@networkadvertising.org"},
{"email":"jgrantpp@uiuc.edu"},
{"email":"hgeorgepq@china.com.cn"},
{"email":"bschmidtpr@example.com"},
{"email":"emitchellps@guardian.co.uk"},
{"email":"jcollinspt@w3.org"},
{"email":"cjohnstonpu@surveymonkey.com"},
{"email":"kgrantpv@furl.net"},
{"email":"hperrypw@yahoo.com"},
{"email":"phawkinspx@hp.com"},
{"email":"bgarzapy@sbwire.com"},
{"email":"rwhitepz@hao123.com"},
{"email":"bmartinezq0@dropbox.com"},
{"email":"nkelleyq1@wikipedia.org"},
{"email":"adiazq2@nps.gov"},
{"email":"pharrisonq3@reference.com"},
{"email":"shernandezq4@latimes.com"},
{"email":"kleeq5@princeton.edu"},
{"email":"acarrq6@pinterest.com"},
{"email":"drobinsonq7@facebook.com"},
{"email":"ndanielsq8@taobao.com"},
{"email":"jreyesq9@zimbio.com"},
{"email":"etuckerqa@scientificamerican.com"},
{"email":"gbaileyqb@theglobeandmail.com"},
{"email":"dberryqc@wired.com"},
{"email":"rgarrettqd@buzzfeed.com"},
{"email":"dcollinsqe@google.co.uk"},
{"email":"bcarrollqf@mozilla.com"},
{"email":"wthomasqg@woothemes.com"},
{"email":"ggrahamqh@springer.com"},
{"email":"lblackqi@newyorker.com"},
{"email":"lwilsonqj@netvibes.com"},
{"email":"ljenkinsqk@oracle.com"},
{"email":"bbowmanql@macromedia.com"},
{"email":"rkimqm@ucsd.edu"},
{"email":"sjordanqn@biblegateway.com"},
{"email":"tsimmonsqo@google.co.uk"},
{"email":"grodriguezqp@dell.com"},
{"email":"lreedqq@cargocollective.com"},
{"email":"jcoxqr@intel.com"},
{"email":"agomezqs@state.gov"},
{"email":"bhartqt@addthis.com"},
{"email":"wfreemanqu@illinois.edu"},
{"email":"mnicholsqv@amazon.com"},
{"email":"nwellsqw@dmoz.org"},
{"email":"mburtonqx@dot.gov"},
{"email":"grussellqy@topsy.com"},
{"email":"rfreemanqz@cloudflare.com"},
{"email":"klewisr0@github.com"},
{"email":"jsimmonsr1@blogger.com"},
{"email":"drayr2@yale.edu"},
{"email":"mcooperr3@ameblo.jp"},
{"email":"agreener4@example.com"},
{"email":"ddunnr5@theglobeandmail.com"},
{"email":"hhuntr6@lulu.com"},
{"email":"mfernandezr7@sbwire.com"},
{"email":"sstephensr8@google.com"},
{"email":"jbishopr9@biglobe.ne.jp"},
{"email":"hdanielsra@spotify.com"},
{"email":"anicholsrb@netvibes.com"},
{"email":"cwashingtonrc@google.es"},
{"email":"tortizrd@reddit.com"},
{"email":"lblackre@weather.com"},
{"email":"bmyersrf@usa.gov"},
{"email":"rbowmanrg@soup.io"},
{"email":"barnoldrh@wikipedia.org"},
{"email":"bharveyri@e-recht24.de"},
{"email":"jpiercerj@mashable.com"},
{"email":"rmartinezrk@columbia.edu"},
{"email":"edeanrl@tinypic.com"},
{"email":"jgarciarm@sitemeter.com"},
{"email":"jgibsonrn@seattletimes.com"},
{"email":"jbanksro@prweb.com"},
{"email":"cgreenerp@studiopress.com"},
{"email":"kellisrq@phoca.cz"},
{"email":"hthomasrr@tinyurl.com"}]